<?php
/**
 * Controller_App
 *
 * @package Controller
 * @created 2014-11-20
 * @version 1.0
 * @author thailh
 * @copyright Oceanize INC
 */
class Controller_App extends \Controller {
   
    
    
}

