<?php

return array(
    'defaults' => array(
        'phpmailer' => array(
            'Mailer' => 'smtp',
            'SMTPAuth' => true,
            'SMTPSecure ' => 'ssl',
            'Host' => 'tls://email-smtp.us-west-2.amazonaws.com',
            'Port' => 465,
            'Username' => 'AKIAJYRIU4VCLBGJIESQ',
            'Password' => 'Ar9kTRFgQ/gTz2PheHgJvwrP63PpLYUlENMGrLG7T8Op',
            'Timeout' => 30, // 30 seconds
        )
    )
);

